<svg width="16" height="17" viewBox="0 0 16 17" fill="none" xmlns="http://www.w3.org/2000/svg">
<path d="M1.5498 4.47222H14.4387M6.38314 7.69444V12.5278M9.60536 7.69444V12.5278M2.35536 4.47222L3.16092 14.1389C3.16092 14.5662 3.33066 14.976 3.6328 15.2781C3.93494 15.5803 4.34473 15.75 4.77203 15.75H11.2165C11.6438 15.75 12.0536 15.5803 12.3557 15.2781C12.6578 14.976 12.8276 14.5662 12.8276 14.1389L13.6331 4.47222M5.57758 4.47222V2.05556C5.57758 1.84191 5.66245 1.63701 5.81352 1.48594C5.9646 1.33487 6.16949 1.25 6.38314 1.25H9.60536C9.81901 1.25 10.0239 1.33487 10.175 1.48594C10.326 1.63701 10.4109 1.84191 10.4109 2.05556V4.47222" stroke="#105A65" stroke-opacity="0.7" stroke-width="1.2" stroke-linecap="round" stroke-linejoin="round"/>
</svg>
