<svg width="15" height="16" viewBox="0 0 15 16" fill="none" xmlns="http://www.w3.org/2000/svg">
<path fill-rule="evenodd" clip-rule="evenodd" d="M12.8601 1.20667C12.0949 0.362003 10.7123 3.29164e-06 8.94281 3.29164e-06H3.80891C3.63448 -0.000512558 3.46556 0.0596178 3.33241 0.169622C3.19926 0.279626 3.11059 0.432316 3.08228 0.600337L0.944714 13.7313C0.935034 13.7925 0.939062 13.855 0.956521 13.9145C0.97398 13.974 1.00445 14.0291 1.04584 14.076C1.08723 14.1229 1.13854 14.1605 1.19625 14.1862C1.25395 14.2118 1.31667 14.225 1.38008 14.2247H4.54954L5.34584 9.33467L5.32091 9.488C5.34862 9.32017 5.43673 9.16749 5.56942 9.05739C5.70211 8.94729 5.87067 8.887 6.04481 8.88734H7.55067C10.5105 8.88734 12.827 7.72334 13.5037 4.35634C13.5242 4.25634 13.5563 4.065 13.5563 4.065C13.7486 2.819 13.555 1.97334 12.8597 1.20634L12.8601 1.20667ZM14.3588 4.70267C13.6226 8.01767 11.2753 9.772 7.55101 9.772H6.20018L5.19286 16H7.38369C7.53623 16.0004 7.68392 15.9477 7.8003 15.8515C7.91668 15.7552 7.99415 15.6216 8.01881 15.4747L8.04442 15.3427L8.54842 12.2517L8.58086 12.081C8.60531 11.9341 8.68262 11.8005 8.7989 11.7042C8.91518 11.6079 9.06282 11.5553 9.2153 11.5557H9.61549C12.2038 11.5557 14.2307 10.537 14.8228 7.59234C15.0605 6.41 14.9464 5.419 14.3588 4.70267Z" fill="black"/>
</svg>
