<svg width="24" height="24" viewBox="0 0 24 24" fill="none" xmlns="http://www.w3.org/2000/svg">
<g id="state=resolved">
<path id="Vector" d="M0 12C0 8.8174 1.26428 5.76516 3.51472 3.51472C5.76516 1.26428 8.8174 0 12 0C15.1826 0 18.2348 1.26428 20.4853 3.51472C22.7357 5.76516 24 8.8174 24 12C24 15.1826 22.7357 18.2348 20.4853 20.4853C18.2348 22.7357 15.1826 24 12 24C8.8174 24 5.76516 22.7357 3.51472 20.4853C1.26428 18.2348 0 15.1826 0 12Z" fill="#60D286"/>
<path id="Vector_2" d="M17.6419 9.39181L10.8919 16.1418C10.681 16.3525 10.395 16.4708 10.0969 16.4708C9.79878 16.4708 9.51284 16.3525 9.3019 16.1418L6.3019 13.1418C6.10329 12.9284 5.99513 12.6463 6.00017 12.3549C6.0052 12.0634 6.12304 11.7852 6.3289 11.5788C6.53531 11.3729 6.81348 11.2551 7.10496 11.2501C7.39643 11.245 7.67851 11.3532 7.8919 11.5518L10.0969 13.7568L16.0519 7.80181C16.2653 7.6032 16.5474 7.49504 16.8388 7.50008C17.1303 7.50511 17.4085 7.62294 17.6149 7.82881C17.8208 8.03521 17.9386 8.31339 17.9436 8.60486C17.9487 8.89634 17.8405 9.17842 17.6419 9.39181Z" fill="white"/>
</g>
</svg>
